{
  "project_info": {
    "project_number": "580280163026",
    "firebase_url": "https://lakupandai-diy-7174d.firebaseio.com",
    "project_id": "lakupandai-diy-7174d",
    "storage_bucket": "lakupandai-diy-7174d.appspot.com"
  },
  "client": [
    {
      "client_info": {
        "mobilesdk_app_id": "1:580280163026:android:ab8f3780b03085f0",
        "android_client_info": {
          "package_name": "agen.bpddiy"
        }
      },
      "oauth_client": [
        {
          "client_id": "580280163026-24mn1ljfrn85pmirpg52sjr9jvnthqdf.apps.googleusercontent.com",
          "client_type": 1,
          "android_info": {
            "package_name": "agen.bpddiy",
            "certificate_hash": "3696c282f9ab72b8ee689830bfa3b43fd0b89938"
          }
        }
      ],
      "api_key": [
        {
          "current_key": "AIzaSyByrTYVcyZqH6OVkIgL4cPwPEdgppYtXJE"
        }
      ],
      "services": {
        "appinvite_service": {
          "other_platform_oauth_client": [
            {
              "client_id": "580280163026-0mgc5dvuqaf36g422lt1pqpidjfsnfef.apps.googleusercontent.com",
              "client_type": 3
            }
          ]
        }
      }
    }
  ],
  "configuration_version": "1"
}